Experimenting with machine learning in R with tidymodels and the Kaggle titanic dataset | Olivier Gimenez
…
Collect metrics.

xg_tune %>%
  collect_metrics() %>%
  arrange(desc(mean))

## # A tibble: 90 × 10
##     mtry trees tree_depth learn_rate .metric  .estimator  mean     n std_err
##    <dbl> <dbl>      <dbl>      <dbl> <chr>    <chr>      <dbl> <int>   <dbl>
##  1     3  2000          5      0.01  accuracy binary     0.849     5  0.0139
##  2     3  1500         15      0.01  accuracy binary     0.849     5  0.0139
##  3     3  1500          5      0.01  accuracy binary     0.847     5  0.0131
##  4     3  2500          5      0.01  accuracy binary     0.847     5  0.0122
##  5     3  2500         15      0.005 accuracy binary     0.847     5  0.0146
##  6     3  1500         10      0.01  accuracy binary     0.846     5  0.0147
##  7     3  2000         10      0.01  accuracy binary     0.846     5  0.0132
##  8     3  1000         15      0.01  accuracy binary     0.844     5  0.0137
##  9     3  2000         10      0.005 accuracy binary     0.844     5  0.0139
## 10     8  1500          5      0.005 accuracy binary     0.844     5  0.0127
## # … with 80 more rows, and 1 more variable: .config <chr>
…
Collect metrics.

rf_tune %>%
  collect_metrics() %>%
  arrange(desc(mean))

## # A tibble: 60 × 9
##     mtry trees min_n .metric  .estimator  mean     n std_err .config            
##    <dbl> <dbl> <dbl> <chr>    <chr>      <dbl> <int>   <dbl> <chr>              
##  1     8  1000    16 accuracy binary     0.843     5  0.0196 Preprocessor1_Mode…
##  2     5  2000     1 accuracy binary     0.841     5  0.0172 Preprocessor1_Mode…
##  3     8   500    16 accuracy binary     0.840     5  0.0176 Preprocessor1_Mode…
##  4     5  1000     1 accuracy binary     0.840     5  0.0163 Preprocessor1_Mode…
##  5     5  2500     1 accuracy binary     0.840     5  0.0163 Preprocessor1_Mode…
##  6     5   500     1 accuracy binary     0.840     5  0.0178 Preprocessor1_Mode…
##  7     8  1500    16 accuracy binary     0.838     5  0.0168 Preprocessor1_Mode…
##  8     5  1500     1 accuracy binary     0.838     5  0.0168 Preprocessor1_Mode…
##  9     3  1000     1 accuracy binary     0.837     5  0.0169 Preprocessor1_Mode…
## 10     5   500    16 accuracy binary     0.837     5  0.0185 Preprocessor1_Mode…
## # … with 50 more rows
…
